<?xml version="1.0" encoding="UTF-8" standalone="no"?>
<!DOCTYPE svg PUBLIC "-//W3C//DTD SVG 1.1//EN"
 "http://www.w3.org/Graphics/SVG/1.1/DTD/svg11.dtd">
<!-- Generated by graphviz version 2.38.0 (20140413.2041)
 -->
<!-- Title: G Pages: 1 -->
<svg width="592pt" height="794pt"
 viewBox="0.00 0.00 591.77 794.00" xmlns="http://www.w3.org/2000/svg" xmlns:xlink="http://www.w3.org/1999/xlink">
<g id="graph0" class="graph" transform="scale(1 1) rotate(0) translate(4 790)">
<title>G</title>
<polygon fill="white" stroke="none" points="-4,4 -4,-790 587.772,-790 587.772,4 -4,4"/>
<g id="clust1" class="cluster"><title>cluster_Global</title>
<path fill="none" stroke="gray" d="M371.772,-8C371.772,-8 563.772,-8 563.772,-8 569.772,-8 575.772,-14 575.772,-20 575.772,-20 575.772,-766 575.772,-766 575.772,-772 569.772,-778 563.772,-778 563.772,-778 371.772,-778 371.772,-778 365.772,-778 359.772,-772 359.772,-766 359.772,-766 359.772,-20 359.772,-20 359.772,-14 365.772,-8 371.772,-8"/>
<text text-anchor="middle" x="467.772" y="-765.2" font-family="Times New Roman,serif" font-size="11.00" fill="gray">Global</text>
</g>
<g id="clust2" class="cluster"><title>cluster_\Drupal</title>
<path fill="none" stroke="gray" d="M379.772,-16C379.772,-16 555.772,-16 555.772,-16 561.772,-16 567.772,-22 567.772,-28 567.772,-28 567.772,-738 567.772,-738 567.772,-744 561.772,-750 555.772,-750 555.772,-750 379.772,-750 379.772,-750 373.772,-750 367.772,-744 367.772,-738 367.772,-738 367.772,-28 367.772,-28 367.772,-22 373.772,-16 379.772,-16"/>
<text text-anchor="middle" x="467.772" y="-737.2" font-family="Times New Roman,serif" font-size="11.00" fill="gray">Drupal</text>
</g>
<g id="clust3" class="cluster"><title>cluster_\Drupal\registry_codelists</title>
<path fill="none" stroke="gray" d="M391.272,-452C391.272,-452 544.272,-452 544.272,-452 550.272,-452 556.272,-458 556.272,-464 556.272,-464 556.272,-710 556.272,-710 556.272,-716 550.272,-722 544.272,-722 544.272,-722 391.272,-722 391.272,-722 385.272,-722 379.272,-716 379.272,-710 379.272,-710 379.272,-464 379.272,-464 379.272,-458 385.272,-452 391.272,-452"/>
<text text-anchor="middle" x="467.772" y="-709.2" font-family="Times New Roman,serif" font-size="11.00" fill="gray">registry_codelists</text>
</g>
<g id="clust4" class="cluster"><title>cluster_\Drupal\registry_codelists\Controller</title>
<path fill="none" stroke="gray" d="M399.272,-460C399.272,-460 536.272,-460 536.272,-460 542.272,-460 548.272,-466 548.272,-472 548.272,-472 548.272,-682 548.272,-682 548.272,-688 542.272,-694 536.272,-694 536.272,-694 399.272,-694 399.272,-694 393.272,-694 387.272,-688 387.272,-682 387.272,-682 387.272,-472 387.272,-472 387.272,-466 393.272,-460 399.272,-460"/>
<text text-anchor="middle" x="467.772" y="-681.2" font-family="Times New Roman,serif" font-size="11.00" fill="gray">Controller</text>
</g>
<g id="clust5" class="cluster"><title>cluster_\Drupal\registry_namespaces</title>
<path fill="none" stroke="gray" d="M387.772,-140C387.772,-140 547.772,-140 547.772,-140 553.772,-140 559.772,-146 559.772,-152 559.772,-152 559.772,-432 559.772,-432 559.772,-438 553.772,-444 547.772,-444 547.772,-444 387.772,-444 387.772,-444 381.772,-444 375.772,-438 375.772,-432 375.772,-432 375.772,-152 375.772,-152 375.772,-146 381.772,-140 387.772,-140"/>
<text text-anchor="middle" x="467.772" y="-431.2" font-family="Times New Roman,serif" font-size="11.00" fill="gray">registry_namespaces</text>
</g>
<g id="clust6" class="cluster"><title>cluster_\Drupal\registry_namespaces\Controller</title>
<path fill="none" stroke="gray" d="M395.772,-344C395.772,-344 539.772,-344 539.772,-344 545.772,-344 551.772,-350 551.772,-356 551.772,-356 551.772,-404 551.772,-404 551.772,-410 545.772,-416 539.772,-416 539.772,-416 395.772,-416 395.772,-416 389.772,-416 383.772,-410 383.772,-404 383.772,-404 383.772,-356 383.772,-356 383.772,-350 389.772,-344 395.772,-344"/>
<text text-anchor="middle" x="467.772" y="-403.2" font-family="Times New Roman,serif" font-size="11.00" fill="gray">Controller</text>
</g>
<g id="clust7" class="cluster"><title>cluster_\Drupal\registry_namespaces\NamespaceForm</title>
<path fill="none" stroke="gray" d="M419.772,-264C419.772,-264 515.772,-264 515.772,-264 521.772,-264 527.772,-270 527.772,-276 527.772,-276 527.772,-324 527.772,-324 527.772,-330 521.772,-336 515.772,-336 515.772,-336 419.772,-336 419.772,-336 413.772,-336 407.772,-330 407.772,-324 407.772,-324 407.772,-276 407.772,-276 407.772,-270 413.772,-264 419.772,-264"/>
<text text-anchor="middle" x="467.772" y="-323.2" font-family="Times New Roman,serif" font-size="11.00" fill="gray">NamespaceForm</text>
</g>
<g id="clust8" class="cluster"><title>cluster_\Drupal\registry_namespaces\Plugin</title>
<path fill="none" stroke="gray" d="M404.772,-148C404.772,-148 530.772,-148 530.772,-148 536.772,-148 542.772,-154 542.772,-160 542.772,-160 542.772,-244 542.772,-244 542.772,-250 536.772,-256 530.772,-256 530.772,-256 404.772,-256 404.772,-256 398.772,-256 392.772,-250 392.772,-244 392.772,-244 392.772,-160 392.772,-160 392.772,-154 398.772,-148 404.772,-148"/>
<text text-anchor="middle" x="467.772" y="-243.2" font-family="Times New Roman,serif" font-size="11.00" fill="gray">Plugin</text>
</g>
<g id="clust9" class="cluster"><title>cluster_\Drupal\registry_namespaces\Plugin\Block</title>
<path fill="none" stroke="gray" d="M412.772,-156C412.772,-156 522.772,-156 522.772,-156 528.772,-156 534.772,-162 534.772,-168 534.772,-168 534.772,-216 534.772,-216 534.772,-222 528.772,-228 522.772,-228 522.772,-228 412.772,-228 412.772,-228 406.772,-228 400.772,-222 400.772,-216 400.772,-216 400.772,-168 400.772,-168 400.772,-162 406.772,-156 412.772,-156"/>
<text text-anchor="middle" x="467.772" y="-215.2" font-family="Times New Roman,serif" font-size="11.00" fill="gray">Block</text>
</g>
<g id="clust10" class="cluster"><title>cluster_\Drupal\isoregistry</title>
<path fill="none" stroke="gray" d="M394.772,-24C394.772,-24 540.772,-24 540.772,-24 546.772,-24 552.772,-30 552.772,-36 552.772,-36 552.772,-120 552.772,-120 552.772,-126 546.772,-132 540.772,-132 540.772,-132 394.772,-132 394.772,-132 388.772,-132 382.772,-126 382.772,-120 382.772,-120 382.772,-36 382.772,-36 382.772,-30 388.772,-24 394.772,-24"/>
<text text-anchor="middle" x="467.772" y="-119.2" font-family="Times New Roman,serif" font-size="11.00" fill="gray">isoregistry</text>
</g>
<g id="clust11" class="cluster"><title>cluster_\Drupal\isoregistry\Controller</title>
<path fill="none" stroke="gray" d="M402.772,-32C402.772,-32 532.772,-32 532.772,-32 538.772,-32 544.772,-38 544.772,-44 544.772,-44 544.772,-92 544.772,-92 544.772,-98 538.772,-104 532.772,-104 532.772,-104 402.772,-104 402.772,-104 396.772,-104 390.772,-98 390.772,-92 390.772,-92 390.772,-44 390.772,-44 390.772,-38 396.772,-32 402.772,-32"/>
<text text-anchor="middle" x="467.772" y="-91.2" font-family="Times New Roman,serif" font-size="11.00" fill="gray">Controller</text>
</g>
<!-- \\Drupal\\registry_codelists\\Controller\\CodelistsController -->
<g id="node1" class="node"><title>\\Drupal\\registry_codelists\\Controller\\CodelistsController</title>
<polygon fill="none" stroke="black" points="540.272,-666 395.272,-666 395.272,-630 540.272,-630 540.272,-666"/>
<text text-anchor="middle" x="467.772" y="-645.2" font-family="Courier,monospace" font-size="11.00">CodelistsController</text>
</g>
<!-- \\Drupal\\registry_codelists\\Controller\\CodelistsValidator -->
<g id="node2" class="node"><title>\\Drupal\\registry_codelists\\Controller\\CodelistsValidator</title>
<polygon fill="none" stroke="black" points="536.772,-612 398.772,-612 398.772,-576 536.772,-576 536.772,-612"/>
<text text-anchor="middle" x="467.772" y="-591.2" font-family="Courier,monospace" font-size="11.00">CodelistsValidator</text>
</g>
<!-- \\Drupal\\registry_codelists\\Controller\\CodelistXML -->
<g id="node3" class="node"><title>\\Drupal\\registry_codelists\\Controller\\CodelistXML</title>
<polygon fill="none" stroke="black" points="513.272,-558 422.272,-558 422.272,-522 513.272,-522 513.272,-558"/>
<text text-anchor="middle" x="467.772" y="-537.2" font-family="Courier,monospace" font-size="11.00">CodelistXML</text>
</g>
<!-- \\Drupal\\registry_codelists\\Controller\\CodelistResponse -->
<g id="node4" class="node"><title>\\Drupal\\registry_codelists\\Controller\\CodelistResponse</title>
<polygon fill="none" stroke="black" points="530.272,-504 405.272,-504 405.272,-468 530.272,-468 530.272,-504"/>
<text text-anchor="middle" x="467.772" y="-483.2" font-family="Courier,monospace" font-size="11.00">CodelistResponse</text>
</g>
<!-- \\Drupal\\registry_namespaces\\Controller\\NamespacesController -->
<g id="node5" class="node"><title>\\Drupal\\registry_namespaces\\Controller\\NamespacesController</title>
<polygon fill="none" stroke="black" points="543.772,-388 391.772,-388 391.772,-352 543.772,-352 543.772,-388"/>
<text text-anchor="middle" x="467.772" y="-367.2" font-family="Courier,monospace" font-size="11.00">NamespacesController</text>
</g>
<!-- \\Drupal\\registry_namespaces\\NamespaceForm\\NamespaceForm -->
<g id="node6" class="node"><title>\\Drupal\\registry_namespaces\\NamespaceForm\\NamespaceForm</title>
<polygon fill="none" stroke="black" points="519.772,-308 415.772,-308 415.772,-272 519.772,-272 519.772,-308"/>
<text text-anchor="middle" x="467.772" y="-287.2" font-family="Courier,monospace" font-size="11.00">NamespaceForm</text>
</g>
<!-- \\Drupal\\Core\\Form\\FormBase -->
<g id="node9" class="node"><title>\\Drupal\\Core\\Form\\FormBase</title>
<ellipse fill="none" stroke="black" cx="159.886" cy="-317" rx="120.479" ry="18"/>
<text text-anchor="middle" x="159.886" y="-313.3" font-family="Times New Roman,serif" font-size="14.00" fill="gray">\Drupal\Core\Form\FormBase</text>
</g>
<!-- \\Drupal\\registry_namespaces\\NamespaceForm\\NamespaceForm&#45;&gt;\\Drupal\\Core\\Form\\FormBase -->
<g id="edge1" class="edge"><title>\\Drupal\\registry_namespaces\\NamespaceForm\\NamespaceForm&#45;&gt;\\Drupal\\Core\\Form\\FormBase</title>
<path fill="none" stroke="black" d="M415.573,-294.519C377.069,-297.918 322.819,-302.706 274.277,-306.991"/>
<polygon fill="none" stroke="black" points="273.666,-303.531 264.013,-307.897 274.282,-310.504 273.666,-303.531"/>
</g>
<!-- \\Drupal\\Core\\Block\\BlockPluginInterface -->
<g id="node10" class="node"><title>\\Drupal\\Core\\Block\\BlockPluginInterface</title>
<ellipse fill="none" stroke="black" cx="159.886" cy="-263" rx="159.772" ry="18"/>
<text text-anchor="middle" x="159.886" y="-259.3" font-family="Times New Roman,serif" font-size="14.00" fill="gray">\Drupal\Core\Block\BlockPluginInterface</text>
</g>
<!-- \\Drupal\\registry_namespaces\\NamespaceForm\\NamespaceForm&#45;&gt;\\Drupal\\Core\\Block\\BlockPluginInterface -->
<g id="edge2" class="edge"><title>\\Drupal\\registry_namespaces\\NamespaceForm\\NamespaceForm&#45;&gt;\\Drupal\\Core\\Block\\BlockPluginInterface</title>
<path fill="none" stroke="black" stroke-dasharray="1,5" d="M415.573,-285.481C382.823,-282.59 338.682,-278.694 296.351,-274.957"/>
<polygon fill="none" stroke="black" points="296.481,-271.455 286.211,-274.062 295.865,-278.428 296.481,-271.455"/>
</g>
<!-- \\Drupal\\registry_namespaces\\Plugin\\Block\\NamespacesBlock -->
<g id="node7" class="node"><title>\\Drupal\\registry_namespaces\\Plugin\\Block\\NamespacesBlock</title>
<polygon fill="none" stroke="black" points="526.772,-200 408.772,-200 408.772,-164 526.772,-164 526.772,-200"/>
<text text-anchor="middle" x="467.772" y="-179.2" font-family="Courier,monospace" font-size="11.00">NamespacesBlock</text>
</g>
<!-- \\Drupal\\Core\\Block\\BlockBase -->
<g id="node11" class="node"><title>\\Drupal\\Core\\Block\\BlockBase</title>
<ellipse fill="none" stroke="black" cx="159.886" cy="-182" rx="123.478" ry="18"/>
<text text-anchor="middle" x="159.886" y="-178.3" font-family="Times New Roman,serif" font-size="14.00" fill="gray">\Drupal\Core\Block\BlockBase</text>
</g>
<!-- \\Drupal\\registry_namespaces\\Plugin\\Block\\NamespacesBlock&#45;&gt;\\Drupal\\Core\\Block\\BlockBase -->
<g id="edge3" class="edge"><title>\\Drupal\\registry_namespaces\\Plugin\\Block\\NamespacesBlock&#45;&gt;\\Drupal\\Core\\Block\\BlockBase</title>
<path fill="none" stroke="black" d="M408.517,-182C375.918,-182 333.858,-182 293.684,-182"/>
<polygon fill="none" stroke="black" points="293.518,-178.5 283.518,-182 293.518,-185.5 293.518,-178.5"/>
</g>
<!-- \\Drupal\\isoregistry\\Controller\\RegistryExceptions -->
<g id="node8" class="node"><title>\\Drupal\\isoregistry\\Controller\\RegistryExceptions</title>
<polygon fill="none" stroke="black" points="536.772,-76 398.772,-76 398.772,-40 536.772,-40 536.772,-76"/>
<text text-anchor="middle" x="467.772" y="-55.2" font-family="Courier,monospace" font-size="11.00">RegistryExceptions</text>
</g>
</g>
</svg>
